"Popes","steve","A J POPES","Branch Role","A. J. POPE & SONS","support@thenoiseuk.com"
"ans","simon","A. N. S. LTD","Branch Role","A. N. S. LTD","support@thenoiseuk.com"
"Alex Carswell","AC1221","ALEX CARSWELL","Branch Role","ALEX CARSWELL",""
"amazon","amaz-6369","AMAZON.CO.UK","Call Centre","AMAZON.CO.UK","support@thenoiseuk.com"
"andrewstv","and-7676","ANDREWSTV","Branch Role","ANDREWS TV",""
"ARuskin","2vgz9z","ARUSKIN","Branch Role","ANGLIA RUSKIN UNIVERSITY",""
"aquavis","avh321","AQUAVIS","Call Centre","AQUAVISION",""
"argos sykes","argsykes","ARGOS - SYKES","Call Centre","ARGOS",""
"asismith","kars3","ARGOS - SYKES","Call Centre","ARGOS",""
"ahussain1","grah1","ARGOS - SYKES AH","Call Centre","ARGOS",""
"aksmith","h93tgp","ARGOS - SYKES AKS","Call Centre","ARGOS",""
"amclaughlin","stup9u7h","ARGOS - SYKES AM","Call Centre","ARGOS",""
"amackay","3RapHa3R","ARGOS - SYKES AM2","Call Centre","ARGOS",""
"apidgeon","c7uxuRup","ARGOS - SYKES AP","Call Centre","ARGOS",""
"ashort","t98r2z","ARGOS - SYKES AS","Call Centre","ARGOS",""
"alexwu","u25wx3","ARGOS - SYKES AW","Call Centre","ARGOS",""
"bamoah","graa1","ARGOS - SYKES BA","Call Centre","ARGOS",""
"baitken","st4pruSp","ARGOS - SYKES BA","Call Centre","ARGOS",""
"asbdedrickson","kard3","ARGOS - SYKES BD","Call Centre","ARGOS",""
"bmohammed","karm2","ARGOS - SYKES BM","Call Centre","ARGOS",""
"btseng","kart1","ARGOS - SYKES BT","Call Centre","ARGOS",""
"MacDonC","OeTlgH","ARGOS - SYKES CM","Call Centre","ARGOS",""
"cmackay","y48k5b","ARGOS - SYKES CM2","Call Centre","ARGOS",""
"cross","KARR1","ARGOS - SYKES CR","Call Centre","ARGOS",""
"dbain","karb1","ARGOS - SYKES DB","Call Centre","ARGOS",""
"dbold","karb2","ARGOS - SYKES DB","Call Centre","ARGOS",""
"asdbold","karb2","ARGOS - SYKES DB","Call Centre","ARGOS",""
"asdbain","karb3","ARGOS - SYKES DB","Call Centre","ARGOS",""
"dbenzie","3haWerex","ARGOS - SYKES DB","Call Centre","ARGOS",""
"ddiack","kard2","ARGOS - SYKES DD","Call Centre","ARGOS",""
"dkania","Pemezuh4","ARGOS - SYKES DK","Call Centre","ARGOS",""
"dmaclean","n43cte","ARGOS - SYKES DM","Call Centre","ARGOS",""
"dnelson","karn1","ARGOS - SYKES DN","Call Centre","ARGOS",""
"dwilson","karw1","ARGOS - SYKES DW","Call Centre","ARGOS",""
"fsello","gras2","ARGOS - SYKES FS","Call Centre","ARGOS",""
"fstables","juXa89Eg","ARGOS - SYKES FS2","Call Centre","ARGOS",""
"gdailly","kard1","ARGOS - SYKES GD","Call Centre","ARGOS",""
"hnaether","laun1","ARGOS - SYKES HN","Call Centre","ARGOS",""
"jduffy","laud1","ARGOS - SYKES JD","Call Centre","ARGOS",""
"jfryer","karf1","ARGOS - SYKES JF","Call Centre","ARGOS",""
"jgordon","karg3","ARGOS - SYKES JG","Call Centre","ARGOS",""
"jmonaghan","laum1","ARGOS - SYKES JM","Call Centre","ARGOS",""
"jrattray","cHA4ucUH","ARGOS - SYKES JR","Call Centre","ARGOS",""
"kballinas","s24n3a","ARGOS - SYKES KB","Call Centre","ARGOS",""
"kmcintosh","laum2","ARGOS - SYKES KM","Call Centre","ARGOS",""
"kmckenna","7tETHAba","ARGOS - SYKES KM","Call Centre","ARGOS",""
"kstawarz","laus1","ARGOS - SYKES KS","Call Centre","ARGOS",""
"lmartin","karm1","ARGOS - SYKES LM","Call Centre","ARGOS",""
"lmacnick","ch8Vuvuw","ARGOS - SYKES LM2","Call Centre","ARGOS",""
"mbell","laub1","ARGOS - SYKES MB","Call Centre","ARGOS",""
"mbaird","laub2","ARGOS - SYKES MB","Call Centre","ARGOS",""
"mduffy","y34ef2","ARGOS - SYKES MD","Call Centre","ARGOS",""
"asmhaque","karh1","ARGOS - SYKES MH","Call Centre","ARGOS",""
"mhatch","th7swUqu","ARGOS - SYKES MH","Call Centre","ARGOS",""
"mhaider","tupruh7w","ARGOS - SYKES MH2","Call Centre","ARGOS",""
"markhill","t38phc","ARGOS - SYKES MH3","Call Centre","ARGOS",""
"mkupczyk","k32pz5","ARGOS - SYKES MK","Call Centre","ARGOS",""
"mlivingstone","bRet7ere","ARGOS - SYKES ML","Call Centre","ARGOS",""
"mlivingstone2","fExutrE6","ARGOS - SYKES ML2","Call Centre","ARGOS",""
"mscott","gras1","ARGOS - SYKES MS","Call Centre","ARGOS",""
"asmwallace","karw2","ARGOS - SYKES MW","Call Centre","ARGOS",""
"okhramochkina","kark2","ARGOS - SYKES OK","Call Centre","ARGOS",""
"pekata","kare1","ARGOS - SYKES PE","Call Centre","ARGOS",""
"pjackson","n63kc4","ARGOS - SYKES PJ","Call Centre","ARGOS",""
"pnunes","gran1","ARGOS - SYKES PN","Call Centre","ARGOS",""
"ppmanani","grap1","ARGOS - SYKES PP","Call Centre","ARGOS",""
"rcrofts","2AthASpu","ARGOS - SYKES RC","Call Centre","ARGOS",""
"rdobson","n82bs5","ARGOS - SYKES RD","Call Centre","ARGOS",""
"rgumus","Fr4bec4u","ARGOS - SYKES RG","Call Centre","ARGOS",""
"rhogg","GugaC4u4","ARGOS - SYKES RH","Call Centre","ARGOS",""
"asrhogg","newh2","ARGOS - SYKES RH","Call Centre","ARGOS",""
"rinnes","veM3Kug9","ARGOS - SYKES RI","Call Centre","ARGOS",""
"rleith","karl1","ARGOS - SYKES RL","Call Centre","ARGOS",""
"asrleith","karl2","ARGOS - SYKES RL","Call Centre","ARGOS",""
"rwood","graw1","ARGOS - SYKES RW","Call Centre","ARGOS",""
"sgilluley","karg1","ARGOS - SYKES SG","Call Centre","ARGOS",""
"sgardner","karg4","ARGOS - SYKES SG","Call Centre","ARGOS",""
"assgardner","karg5","ARGOS - SYKES SG","Call Centre","ARGOS",""
"shawarden","lauh1","ARGOS - SYKES SH","Call Centre","ARGOS",""
"smillar","karm3","ARGOS - SYKES SM","Call Centre","ARGOS",""
"smehes","69uSumuh","ARGOS - SYKES SM","Call Centre","ARGOS",""
"srahman","grar1","ARGOS - SYKES SR","Call Centre","ARGOS",""
"sspinalbelli","kars1","ARGOS - SYKES SS","Call Centre","ARGOS",""
"ssharma","kars2","ARGOS - SYKES SS","Call Centre","ARGOS",""
"swilson","graw2","ARGOS - SYKES SW","Call Centre","ARGOS",""
"tgeorge","karg2","ARGOS - SYKES TG","Call Centre","ARGOS",""
"tkhan","kark1","ARGOS - SYKES TK","Call Centre","ARGOS",""
"asvcrisp","karc1","ARGOS - SYKES VC","Call Centre","ARGOS",""
"washe","kara1","ARGOS - SYKES WA","Call Centre","ARGOS",""
"ythompson","grat1","ARGOS - SYKES YT","Call Centre","ARGOS",""
"ascking","newk1","ARGOS SYKES CHRISTINE KING","Call Centre","ARGOS",""
"asdpinkerton","newp1","ARGOS SYKES DALE PINKERTON","Call Centre","ARGOS",""
"asdleslie","newl1","ARGOS SYKES DARYL LESLIE","Call Centre","ARGOS",""
"asdbenzie","newb1","ARGOS SYKES DEAN BENZIE","Call Centre","ARGOS",""
"asibrown","newb2","ARGOS SYKES IAN BROWN","Call Centre","ARGOS",""
"asjren","newr1","ARGOS SYKES JING REN","Call Centre","ARGOS",""
"askbernard","karb4","ARGOS- SYKES KB","Call Centre","ARGOS",""
"asmstewart","news1","ARGOS SYKES MAUREEN STEWART","Call Centre","ARGOS",""
"asamclaughlan","newm1","ASAMCLAUGHLAN","Call Centre","ARGOS",""
"ascdobric","newd1","ASCDOBRIC","Call Centre","ARGOS",""
"asdkania","newk2","ASDKANIA","Call Centre","ARGOS",""
"asehillary","newh1","ASEHILLARY","Call Centre","ARGOS",""
"oxfordb&o","obo981","OXFORDB&O","Branch Role","B & O OXFORD",""
"bando","fi3lo","B & O SHREWSBURY","Branch Role","B & O SHREWSBURY",""
"shrewsb&o","sbo123","SHREWSB&O","Branch Role","B & O SHREWSBURY",""
"mdimsey","bba321","MDIMSEY","Branch Role","B B ADAMS",""
"bennettssted","26012","BENNETTS BURY ST EDMUNDS","Branch Role","BENNETTS RETAIL LTD. BURY ST EDMUNDS","support@thenoiseuk.com"
"bennettsmar","26008","BENNETTS MARTLESHAM","Branch Role","BENNETTS RETAIL LTD. MARTLESHAM HEATH","support@thenoiseuk.com"
"bennetts","benn-5820","BENNETTS NORWICH","Branch Role","BENNETTS RETAIL LTD. NORWICH","support@thenoiseuk.com"
"bennettschm","26004","BENNETTS VICTORIA ROAD","Branch Role","BENNETTS RETAIL LTD. RIVERSIDE","support@thenoiseuk.com"
"bennettscol","26010","BENNETTS PETROLEA CLOSE","Branch Role","BENNETTS RETAIL LTD. TURNER RISE","support@thenoiseuk.com"
"bigwarr1","bw1321","BIGWARR1","Call Centre","BIG WARRANTIES LIMITED","customerservice@natsatserv.co.uk"
"vicbsc","vbsc123","VICBSC","Branch Role","BIRMINGHAM SONY CENTRE",""
"BRIGHTBOST","BHBOS1","BRIGHTBOST","Branch Role","BRIGHTHOUSE BOSTON",""
"BRIGHTGRIM","BHGRI1","BRIGHTGRIM","Branch Role","BRIGHTHOUSE GRIMSBY",""
"BRIGHTLINC","BHLIN1","BRIGHTLINC","Branch Role","BRIGHTHOUSE LINCOLN",""
"BRIGHTSCUN","BHSCU1","BRIGHTSCUN","Branch Role","BRIGHTHOUSE SCUNTHORPE",""
"BSS1","B1S1S1","BSS","Branch Role","BSS CUSTOMER ACCOUNT",""
"castelan","alpha321","CASTELAN","Call Centre","CASTELAN LTD",""
"CheltSony","chelt435","CHELTENHAM SONY CENTRE","Branch Role","CHELTENHAM SONY CENTRE","sales@cheltenhamsonycentre.co.uk"
"cometlin","law321","COMETLIN","Branch Role","COMET LINCOLN",""
"compudal","compu-331","COMPUDAL LTD","Branch Role","COMPUDAL LTD","support@thenoiseuk.com"
"CoveSony","cove682","COVENTRY SONY CENTRE","Branch Role","COVENTRY SONY CENTRE","sales@coventrysonycentre.co.uk"
"CTS","CTSPTAC","CTS","Branch Role","CTS",""
"BT19 2HR","2448","CURRYS BANGOR","Branch Role","CURRYS BANGOR",""
"E6 6LH","2308","CURRYS BECKTON","Branch Role","CURRYS BECKTON",""
"BIRMINGHAMJ9C","2388","CURRYS BIRMINGHAM J9","Branch Role","CURRYS BIRMINGHAM J9",""
"BOSTONC","2247","BOSTONC","Branch Role","CURRYS BOSTON",""
"BD1 4JB","2316","CURRYS BRADFORD","Branch Role","CURRYS BRADFORD",""
"BN3 7DX","2200","CURRYS BRIGHTON","Branch Role","CURRYS BRIGHTON",""
"BIRMINGHAMBRC","619","CURRYS BULLRING","Branch Role","CURRYS BULLRING",""
"SE7 8LU","2311","CURRYS CHARLTON","Branch Role","CURRYS CHARLTON",""
"CM2 6XE","2284","CURRYS CHELMSFORD","Branch Role","CURRYS CHELMSFORD",""
"GL51 9DU","2356","CURRYS CHELTENHAM","Branch Role","CURRYS CHELTENHAM",""
"SW19 2NX","2366","CURRYS COLLIERS WOOD","Branch Role","CURRYS COLLIERS WOOD",""
"RH11 7XN","2266","CURRYS CRAWLEY","Branch Role","CURRYS CRAWLEY",""
"currys CR0 4XL","2318","CURRYS CROYDON","Branch Role","CURRYS CROYDON",""
"currys DN5 8AS","2249","CURRYS DONCASTER","Branch Role","CURRYS DONCASTER",""
"DH1 2RW","2339","CURRYS DURHAM","Branch Role","CURRYS DURHAM",""
"BN22 9PW","2176","CURRYS EASTBOURNE","Branch Role","CURRYS EASTBOURNE",""
"EH4 2LN","2242","CURRYS EDINBURGH","Branch Role","CURRYS EDINBURGH",""
"NE11 0BD","2402","CURRYS GATESHEAD","Branch Role","CURRYS GATESHEAD",""
"GL4 3EA","2221","CURRYS GLOUCESTER","Branch Role","CURRYS GLOUCESTER",""
"GRANTHAMC","2251","GRANTHAMC","Branch Role","CURRYS GRANTHAM",""
"GRIMSBYC","2262","GRIMSBYC","Branch Role","CURRYS GRIMSBY",""
"CM20 2DA","2302","CURRYS HARLOW","Branch Role","CURRYS HARLOW",""
"BIRMINGHAMHC","2320","CURRYS HIGHGATE","Branch Role","CURRYS HIGHGATE",""
"HU3 4SA","2322","CURRYS HULL","Branch Role","CURRYS HULL",""
"currys IP8 3TT","2265","CURRYS IPSWICH","Branch Role","CURRYS IPSWICH",""
"currys LE191UT","2272","CURRYS LEICESTER","Branch Role","CURRYS LEICESTER",""
"LINCOLNC","2292","LINCOLNC","Branch Role","CURRYS LINCOLN",""
"L24 8QB","2400","CURRYS LIVERPOOL","Branch Role","CURRYS LIVERPOOL",""
"NW2 6LU","2432","CURRYS LONDON","Branch Role","CURRYS LONDON",""
"LE11 5PF","2826","CURRYS LOUGHBOROUGH 2 IN 1","Branch Role","CURRYS LOUGHBOROUGH 2 IN 1","dutymanager_2826@currysstores.co.uk"
"LU4 8EZ","2446","CURRYS LUTON","Branch Role","CURRYS LUTON",""
"M16 0RP","2380","CURRYS MANCHESTER","Branch Role","CURRYS MANCHESTER",""
"MERRYHILLC","2287","CURRYS MERRYHILL","Branch Role","CURRYS MERRYHILL",""
"SA1 7DS","2771","CURRYS MORFA RT PRK","Branch Role","CURRYS MORFA RT PRK",""
"NEWARKC","2404","NEWARKC","Branch Role","CURRYS NEWARK",""
"BT36 7GU","2414","CURRYS NEWTOWN ABBEY","Branch Role","CURRYS NEWTOWN ABBEY",""
"currys NG7 1GX","2434","CURRYS NOTTINGHAM","Branch Role","CURRYS NOTTINGHAM",""
"OX2 0HY","2401","CURRYS OXFORD","Branch Role","CURRYS OXFORD",""
"OL7 0DN","2426","CURRYS PC WORLD ASHTON UNDER LYNE","Branch Role","CURRYS PC WORLD ASHTON UNDER LYNE",""
"BA2 1EP","2370","CURRYS PC WORLD BATH","Branch Role","CURRYS PC WORLD BATH",""
"FY4 3RN","2420","CURRYS PC WORLD BLACKPOOL","Branch Role","CURRYS PC WORLD BLACKPOOL",""
"BS34 5TS","2285","CURRYS PC WORLD BRISTOL","Branch Role","CURRYS PC WORLD BRISTOL",""
"CH62 3PN","2810","CURRYS PC WORLD BROMBOROUGH","Branch Role","CURRYS PC WORLD BROMBOROUGH",""
"CB5 8WR","2393","CURRYS PC WORLD CAMBRIDGE","Branch Role","CURRYS PC WORLD CAMBRIDGE",""
"CT1 1WZ","2261","CURRYS PC WORLD CANTERBURY","Branch Role","CURRYS PC WORLD CANTERBURY",""
"CF23 9AD","2154","CURRYS PC WORLD CARDIFF","Branch Role","CURRYS PC WORLD CARDIFF",""
"CH1 4LU","2433","CURRYS PC WORLD CHESTER","Branch Role","CURRYS PC WORLD CHESTER",""
"E4 8JA","2234","CURRYS PC WORLD CHINGFORD","Branch Role","CURRYS PC WORLD CHINGFORD",""
"DA1 4LD","2351","CURRYS PC WORLD CRAYFORD","Branch Role","CURRYS PC WORLD CRAYFORD",""
"DY5 1SY","2287","CURRYS PC WORLD DUDLEY","Branch Role","CURRYS PC WORLD DUDLEY",""
"DD3 8RX","2382","CURRYS PC WORLD DUNDEE","Branch Role","CURRYS PC WORLD DUNDEE",""
"GU14 8BL","2187","CURRYS PC WORLD FARNBOROUGH","Branch Role","CURRYS PC WORLD FARNBOROUGH",""
"SW6 3DU","2445","CURRYS PC WORLD FULHAM","Branch Role","CURRYS PC WORLD FULHAM",""
"G51 4BT","2368","CURRYS PC WORLD GLASGOW","Branch Role","CURRYS PC WORLD GLASGOW",""
"HX3 9XQ","2441","CURRYS PC WORLD HALIFAX","Branch Role","CURRYS PC WORLD HALIFAX",""
"ML3 6AD","2344","CURRYS PC WORLD HAMILTON","Branch Role","CURRYS PC WORLD HAMILTON",""
"TS24 0XR","2298","CURRYS PC WORLD HARTLEPOOL","Branch Role","CURRYS PC WORLD HARTLEPOOL",""
"UB4 0RH","2431","CURRYS PC WORLD HAYES","Branch Role","CURRYS PC WORLD HAYES",""
"WF17 9AD","2304","CURRYS PC WORLD LEEDS","Branch Role","CURRYS PC WORLD LEEDS",""
"L9 5AL","2222","CURRYS PC WORLD LIVERPOOL","Branch Role","CURRYS PC WORLD LIVERPOOL",""
"SA14 9UZ","1622","CURRYS PC WORLD LLANELLI","Branch Role","CURRYS PC WORLD LLANELLI",""
"MK9 1EN","2409","CURRYS PC WORLD MILTON KEYNES","Branch Role","CURRYS PC WORLD MILTON KEYNES",""
"KT3 4PA","2467","CURRYS PC WORLD NEW MALDEN","Branch Role","CURRYS PC WORLD NEW MALDEN",""
"NE28 9ND","2259","CURRYS PC WORLD NORTH SHIELDS","Branch Role","CURRYS PC WORLD NORTH SHIELDS",""
"OL2 5HX","2260","CURRYS PC WORLD OLDHAM","Branch Role","CURRYS PC WORLD OLDHAM",""
"BH15 3TE","2290","CURRYS PC WORLD POOLE","Branch Role","CURRYS PC WORLD POOLE",""
"PR5 4AW","2407","CURRYS PC WORLD PRESTON","Branch Role","CURRYS PC WORLD PRESTON",""
"S60 1TG","2237","CURRYS PC WORLD ROTHERHAM","Branch Role","CURRYS PC WORLD ROTHERHAM",""
"HA4 0EL","2252","CURRYS PC WORLD RUISLIP","Branch Role","CURRYS PC WORLD RUISLIP",""
"SO30 2UH","2223","CURRYS PC WORLD SOUTHAMPTON","Branch Role","CURRYS PC WORLD SOUTHAMPTON",""
"TW18 4WA","2482","CURRYS PC WORLD STAINES","Branch Role","CURRYS PC WORLD STAINES",""
"TS17 7BQ","2282","CURRYS PC WORLD STOCKTON-ON-TEES","Branch Role","CURRYS PC WORLD STOCKTON-ON-TEES",""
"SA5 4BA","1616","CURRYS PC WORLD SWANSEA","Branch Role","CURRYS PC WORLD SWANSEA",""
"TQ2 7AP","2358","CURRYS PC WORLD TORQUAY","Branch Role","CURRYS PC WORLD TORQUAY",""
"LL11 2BA","2430","CURRYS PC WORLD WREXHAM","Branch Role","CURRYS PC WORLD WREXHAM",""
"BIRMINGHAMPBC","2172","CURRYS PERRY BARR","Branch Role","CURRYS PERRY BARR",""
"PL7 4TB","2158","CURRYS PLYMOUTH","Branch Role","CURRYS PLYMOUTH",""
"PO3 5NP5","2215","CURRYS PORTSMOUTH","Branch Role","CURRYS PORTSMOUTH","dutymanager_2215@currysstores.co.uk"
"RM1 4QL","2435","CURRYS ROMFORD","Branch Role","CURRYS ROMFORD",""
"SCUNTHORPEC","2235","SCUNTHORPEC","Branch Role","CURRYS SCUNTHORPE",""
"BIRMINGHAMSC","2300","CURRYS SELLYOAK","Branch Role","CURRYS SELLYOAK",""
"SKEGNESSC","2416","SKEGNESSC","Branch Role","CURRYS SKEGNESS",""
"SOLIHULLC","1617","CURRYS SOLIHULL","Branch Role","CURRYS SOLIHULL",""
"B90 4BA","1617","CURRYS SOLIHULL2","Branch Role","CURRYS SOLIHULL",""
"currys WA9 1JJ","2415","CURRYS ST HELENS","Branch Role","CURRYS ST HELENS",""
"BIRMINGHAMSTC","2330","CURRYS STECHFORD","Branch Role","CURRYS STECHFORD",""
"STEVENAGEC","2423","CURRYS ROARING MEG SOUTH","Branch Role","CURRYS STEVENAGE",""
"sg1 1xn","2423","CURRYS STEVENAGE","Branch Role","CURRYS STEVENAGE",""
"ST1 5NZ","2250","CURRYS STOKE-ON-TRENT","Branch Role","CURRYS STOKE-ON-TRENT",""
"RM201WN","2490","CURRYS THURROCK","Branch Role","CURRYS THURROCK",""
"TN2 3EW","2440","CURRYS TUNBRIDGE WELLS","Branch Role","CURRYS TUNBRIDGE WELLS",""
"WORKSOPC","2369","WORKSOPC","Branch Role","CURRYS WORKSOP",""
"YO30 4XU","2405","CURRYS YORK","Branch Role","CURRYS YORK",""
"DKAVS","DK321","DKAVS","Branch Role","D K AUDIO VISUAL SERVICES",""
"dasademo","dasa321","DASADEMO","Call Centre","D.A.S.A.",""
"dbury1","dbg1102","DBURY1","Branch Role","DAVID BURY LTD",""
"DRSAH1","AH312","DRSAH1","Call Centre","DIGITAL REPAIR SERVICES LTD",""
"DRSDE1","DE429","DRSDE1","Call Centre","DIGITAL REPAIR SERVICES LTD",""
"DRSGM1","GM101","DRSGM1","Call Centre","DIGITAL REPAIR SERVICES LTD",""
"DRSHA1","HA707","DRSHA1","Call Centre","DIGITAL REPAIR SERVICES LTD",""
"DRSJK1","JK717","DRSJK1","Call Centre","DIGITAL REPAIR SERVICES LTD",""
"DRSJL1","JL891","DRSJL1","Call Centre","DIGITAL REPAIR SERVICES LTD",""
"DRSJO1","JO141","DRSJO1","Call Centre","DIGITAL REPAIR SERVICES LTD",""
"DRSJT1","JT111","DRSJT1","Call Centre","DIGITAL REPAIR SERVICES LTD",""
"DRSKA1","KA889","DRSKA1","Call Centre","DIGITAL REPAIR SERVICES LTD",""
"DRSLO1","LO792","DRSLO1","Call Centre","DIGITAL REPAIR SERVICES LTD",""
"DRSMAN","DRS123","DRSMAN","Call Centre","DIGITAL REPAIR SERVICES LTD",""
"DRSMH1","MH465","DRSMH1","Call Centre","DIGITAL REPAIR SERVICES LTD",""
"DRSTB1","TB462","DRSTB1","Call Centre","DIGITAL REPAIR SERVICES LTD",""
"DRSTEMP1","DRST1","DRSTEMP1","Call Centre","DIGITAL REPAIR SERVICES LTD",""
"DRSTEMP2","DRST2","DRSTEMP2","Call Centre","DIGITAL REPAIR SERVICES LTD",""
"DRSTJ1","TJ911","DRSTJ1","Call Centre","DIGITAL REPAIR SERVICES LTD",""
"downtownb","dow-321","DOWNTOWNB","Branch Role","DOWNTOWN BOSTON",""
"downtown","dow-716","DOWNTOWN SUPERSTORE","Branch Role","DOWNTOWN SUPERSTORE","support@thenoiseuk.com"
"Gateshead SC","sha5","GATESHEAD SONY CENTRE (SHASONIC)","Branch Role","GATESHEAD SONY CENTRE (SHASONIC)",""
"glasaud1","gal321","GLASGOW AUDIO","Branch Role","GLASGOW AUDIO LTD",""
"GlasgowCC","GCC123","GLASGOWCC","Branch Role","GLASGOW CAMCORDER CENTRE",""
"shawlands sc","shawsc1","SHAWLANDS SC","Branch Role","GLASGOW SONY CENTRE (SHAWLANDS)",""
"GloucSony","glouc753","GLOUCESTER SONY CENTRE","Branch Role","GLOUCESTER SONY CENTRE","sales@gloucestersonycentre.co.uk"
"hatchers","servserv","HATCHERS & SONS LTD","Branch Role","HATCHERS & SONS LTD","support@thenoiseuk.com"
"sillyserv","sillyserv1","SILLY SERVICES","Call Centre","HOME APPLIANCE GUARD",""
"hcstoreb","hcs-7339","HCS BASILDON","Branch Role","HOME CINEMA STORE BASILDON","support@thenoiseuk.com"
"hcstorer","hcs-4490","HCS ROMFORD","Branch Role","HOME CINEMA STORE ROMFORD","support@thenoiseuk.com"
"HOMESERVE1","HAH321","HOMESERVE1","Branch Role","HOMESERVE AT HOME LTD",""
"integrex","intde11","INTEGREX","Call Centre","INTEGREX LTD",""
"jfa","jfa-1660","J F ASSOCIATES","Branch Role","J F ASSOCIATES","info@jfa.org.uk"
"JLPAHSW","SWINAH1","JLPAHSW","Branch Role","JOHN LEWIS AT HOME (SWINDON)",""
"JLPAHSW1","SWINAH1","JLPAHSW","Branch Role","JOHN LEWIS AT HOME (SWINDON)",""
"JLP","JLP123","JLP","Branch Role","JOHN LEWIS PARTNERSHIP",""
"johnrossav","jr566","JOHN ROSS AV","Branch Role","JOHN ROSS AV",""
"john taylor","jteg1","JOHN TAYLOR ELECTRICAL","Branch Role","JOHN TAYLOR OF GIFFNOCK",""
"JONES TV","JT1742","JONES TELEVISION","Branch Role","JONES TELEVISION",""
"vicksc","vksc124","VICKSC","Branch Role","KIDDERMINSTER SONY CENTRE",""
"kkelectrics","kk204","KK ELECTRICS","Branch Role","KK ELECTRICS",""
"lakes","lake-1032","LAKES","Branch Role","LAKES","info@jfa.org.uk"
"LeamSony","leam287","LEAMINGTON SONY CENTRE","Branch Role","LEAMINGTON SONY CENTRE","service@leamingtonsonycentre.co.uk"
"viclsc","vlsc126","VICLSC","Branch Role","LICHFIELD SONY CENTRE",""
"LINCSC","RARES1","LINCSC","Branch Role","LINCOLN SONY CENTRE",""
"LOEWEUK","LUK321","LOEWEUK","Call Centre","LOEWE UK LTD",""
"lordbros","LBM321","LORDBROS","Branch Role","LORD BROTHERS",""
"Makro","Makro123","MAKRO","Call Centre","MAKRO",""
"M&S","mas123","MARKS & SPENCER","Branch Role","MARKS AND SPENCER GROUP PLC",""
"Matthews","matt-2161","MATTHEWS","Branch Role","MATTHEWS","support@thenoiseuk.com"
"Middlesbrgh SC","sha6","MIDDLESBROUGH SONY CENTRE (SHASONIC)","Branch Role","MIDDLESBROUGH SONY CENTRE (SHASONIC)",""
"ASURION1","NA321","ASURION1","Call Centre","NEW ASURION",""
"Newcastle SC","sha3","NEWCASTLE SONY CENTRE (SHASONIC)","Branch Role","NEWCASTLE SONY CENTRE (SHASONIC)",""
"oldridco","old-321","OLDRIDCO","Call Centre","OLDRID & CO LTD",""
"oldrids","old-248","OLDRIDS","Branch Role","OLDRIDS BOSTON","support@thenoiseuk.com"
"panapro","pan486c","PANASONIC PROFESSIONAL","Call Centre","PANASONIC PROFESSIONAL",""
"Panasonic Glas","Panaglas1","PANASONIC GLAS","Branch Role","PANASONIC STORE GLASGOW",""
"paninv","begg1","PANASONIC STORE INVERNESS","Branch Role","PANASONIC STORE INVERNESS","support@thenoiseuk.com"
"AB25 3TB","4902","PC WORLD ABERDEEN","Branch Role","PC WORLD ABERDEEN",""
"E6 6LG","725","PC WORLD BECKTON","Branch Role","PC WORLD BECKTON",""
"BIRMINGHAMPCW","715","PC WORLD BIRMINGHAM","Branch Role","PC WORLD BIRMINGHAM",""
"B29 6SJ","726","PC WORLD SELLY OAK","Branch Role","PC WORLD BIRMINGHAM",""
"BIRMINGHAMJ9PCW","4923","PC WORLD BIRMINGHAM J9","Branch Role","PC WORLD BIRMINGHAM J9",""
"pcworld CR0 4XL","4880","PC WORLD CROYDON","Branch Role","PC WORLD CROYDON",""
"pcworld DN5 8AS","745","PC WORLD DONCASTER","Branch Role","PC WORLD DONCASTER",""
"EH12 8HW","770","PC WORLD EDINBURGH","Branch Role","PC WORLD EDINBURGH",""
"GU14 7RY","4845","PC WORLD FARNBOROUGH","Branch Role","PC WORLD FARNBOROUGH",""
"pcworld IP8 3TT","728","PC WORLD IPSWICH","Branch Role","PC WORLD IPSWICH",""
"LS11 0BD","766","PC WORLD LEEDS","Branch Role","PC WORLD LEEDS",""
"pcworld LE191UT","748","PC WORLD LEICESTER","Branch Role","PC WORLD LEICESTER",""
"BT27 5UQ","4760","PC WORLD LISBURN","Branch Role","PC WORLD LISBURN",""
"NW2 6LW","4881","PC WORLD LONDON","Branch Role","PC WORLD LONDON",""
"LU4 8DN","709","PC WORLD LUTON","Branch Role","PC WORLD LUTON",""
"MERRYHILLPCW","788","PC WORLD MERRYHILL","Branch Role","PC WORLD MERRYHILL",""
"NR6 5DH","789","PC WORLD NORWICH","Branch Role","PC WORLD NORWICH",""
"pcworld NG7 1GX","4898","PC WORLD NOTTINGHAM","Branch Role","PC WORLD NOTTINGHAM",""
"PL6 8LR","785","PC WORLD PLYMOUTH","Branch Role","PC WORLD PLYMOUTH",""
"PO3 5NP","776","PC WORLD PORTSMOUTH","Branch Role","PC WORLD PORTSMOUTH",""
"RG2 0JZ","779","PC WORLD READING","Branch Role","PC WORLD READING",""
"BIRMINGHAMSPCW","726","PC WORLD SELLYOAK","Branch Role","PC WORLD SELLYOAK",""
"S9 2YZ","743","PC WORLD SHEFFIELD","Branch Role","PC WORLD SHEFFIELD",""
"SL1 5PS","778","PC WORLD SLOUGH","Branch Role","PC WORLD SLOUGH",""
"B90 4AY","722","PC WORLD SHIRLEY","Branch Role","PC WORLD SOLIHULL",""
"SOLIHULLPCW","722","PC WORLD SOLIHULL","Branch Role","PC WORLD SOLIHULL",""
"pcworld WA9 1JJ","4879","PC WORLD ST HELENS","Branch Role","PC WORLD ST HELENS",""
"SG1 1XL","4844","PC WORLD STEVENAGE","Branch Role","PC WORLD STEVENAGE",""
"SK1 2HD","730","PC WORLD STOCKPORT","Branch Role","PC WORLD STOCKPORT",""
"SN3 3SG","741","PC WORLD SWINDON","Branch Role","PC WORLD SWINDON",""
"pcworld WS109QY","4923","PC WORLD WALSALL","Branch Role","PC WORLD WALSALL",""
"RM20 1WN","761","PC WORLD WEST THURROCK","Branch Role","PC WORLD WEST THURROCK",""
"PEERLESS","PIS123","PEERLESS","Call Centre","PEERLESS INSTALLATIONS",""
"perfecthome","ju5hA7","PERFECT HOME","Branch Role","PERFECT HOME",""
"PerthSony","ph1 5nu","PERTH SONY CENTRE","Branch Role","PERTH SONY CENTRE","ancrum.manager@gmail.com"
"PeterR1","PRMR321","PETER RHODES","Branch Role","PETER RHODES",""
"pixeli","pinsp321","PIXELI","Call Centre","PIXEL INSPIRATION",""
"play","pla671m","PLAY.COM","Call Centre","Play.com",""
"Quinns S & V","quinns123","QUINNS S & V","Branch Role","QUINNS SOUND & VISION",""
"raynors","ray-8766","RAYNORS","Branch Role","RAYNERS","support@thenoiseuk.com"
"READINGWHS","RWHS1","READINGWHS","Branch Role","READING WAREHOUSES",""
"ReddSony","redd792","REDDITCH SONY CENTRE","Branch Role","REDDITCH SONY CENTRE","sales@redditchsonycentre.co.uk"
"regenplc","reg9981","REGENPLC","Call Centre","REGENERSIS PLC",""
"encore","encore","REPAIR GUYS","Call Centre","REPAIR GUYS",""
"repairtech","rts321","REPAIRTECH","Call Centre","REPAIR TECH",""
"rgbdirect","rgb-4781","RGB ELECTRICAL SUPERSTORE","Branch Role","RGB ELECTRICAL SUPERSTORE","support@thenoiseuk.com"
"richerservaj","richersd5","ALAN JONES","Call Centre","RICHER SOUNDS",""
"richerservdb","richersd3","DANNY BRIERLEY","Call Centre","RICHER SOUNDS",""
"richercallhh","richercc12","HELEN HALLSWORTH","Call Centre","RICHER SOUNDS",""
"richerservjm","richersd4","JACOB METCALF","Call Centre","RICHER SOUNDS",""
"richercalljd","richercc5","JONNY DEAN","Call Centre","RICHER SOUNDS",""
"richercallkf","richercc10","KIM FOSTER","Call Centre","RICHER SOUNDS",""
"richerservlb","richersd1","LINDON BOLT","Call Centre","RICHER SOUNDS",""
"richercalllc","richercc7","LOUISE CROGHAN","Call Centre","RICHER SOUNDS",""
"richercallmb","richercc3","MARK BIRCHALL","Call Centre","RICHER SOUNDS",""
"richercallmh","richercc11","MAT HARRADINE","Call Centre","RICHER SOUNDS",""
"richerservme","richersd2","MIKE EATON","Call Centre","RICHER SOUNDS",""
"richercallrib","richercc9","RIC BANJAC","Call Centre","RICHER SOUNDS",""
"richersounds","richer123","RICHER SOUNDS","Call Centre","RICHER SOUNDS",""
"richercallrb","richercc8","ROB BANJAC","Call Centre","RICHER SOUNDS",""
"richercallsh","richercc1","STEPHEN HALLSWORTH","Call Centre","RICHER SOUNDS",""
"richercallsr","richercc4","STEVE ROBINSON","Call Centre","RICHER SOUNDS",""
"richercalltg","richercc2","TOM GRIFFITHS","Call Centre","RICHER SOUNDS",""
"richercalltp","richercc6","TOM PAGE","Call Centre","RICHER SOUNDS",""
"robertw","robw1","ROBERT WHYTE","Branch Role","ROBERT WHYTE LTD",""
"robaer","rob-455","ROBERTS AERIALS","Branch Role","ROBERTS AERIALS","support@thenoiseuk.com"
"robinsons1","roh321","ROBINSONS1","Branch Role","ROBINSONS OF HORNCASTLE",""
"JSPLC","SAINS1","JSPLC","Call Centre","SAINSBURY""S",""
"JonPaul","bb2 2aj","PARK COMPUTERS","Call Centre","SANYO UK","jp@parkcomputers.co.uk"
"SANYO BOOKING","SANYO123","SANYO BOOKING","Call Centre","SANYO UK",""
"SANYO UK","SUK123","SANYO UK","Call Centre","SANYO UK",""
"satsecure","x7rEra","SATELLITE SECURE LTD","Call Centre","SATELLITE SECURE LTD","info@satellitesecure.co.uk"
"ses","carnel89","SES ELECTRONICS LTD","Branch Role","SES ELECTRONIC SERVICES LTD","support@thenoiseuk.com"
"sevenoakslin","ssvlin1","SEVENOAKSLIN","Branch Role","SEVENOAKS SOUND & VISION LINCOLN",""
"Shasonic1","shas","SHASONIC","Branch Role","SHASONIC",""
"shastev","shasst981","SHASTEV","Branch Role","SHASONIC STEVENAGE",""
"shelbournes","shelnew1","SHELBOURNES","Branch Role","SHELBOURNES",""
"lawrence","shopd1","SHOP DIRECT","Call Centre","Shop Direct",""
"PANALINC","SAPL1","PANALINC","Branch Role","SHOP@PANASONIC LINCOLN",""
"vicshsc","vshsc128","VICSHSC","Branch Role","SHREWSBURY SONY CENTRE",""
"currys WS10 9QY","2388","CURRYS WEDNESBURY","Branch Role","SOLIHULL SONY CENTRE",""
"solihullSC","soli821","SOLIHULL SONY CENTRE","Branch Role","SOLIHULL SONY CENTRE","sonycentresolihull@sonex.co.uk"
"SQUIRES","ENCORE","SQUIRES","Branch Role","SQUIRES ELECTRICAL",""
"vicstsc","vstsc127","VICSTSC","Branch Role","STAFFORD SONY CENTRE",""
"Stevenage SC","sha1","STEVSC","Branch Role","STEVENAGE SONY CENTRE",""
"stuartwlin","swlin321","STUARTWLIN","Branch Role","STUART WALLACE",""
"Sunderland SC","sha4","SUNDERLAND SONY CENTRE (SHASONIC)","Branch Role","SUNDERLAND SONY CENTRE (SHASONIC)",""
"superfilin","sfl321","SUPERFILIN","Branch Role","SUPERFI LINCOLN",""
"vicscsc","vscsc125","VICSCSC","Branch Role","SUTTON COLDFIELD SONY CENTRE",""
"vicsusc","vsusc125","VICSUSC","Branch Role","SUTTON COLDFIELD SONY CENTRE",""
"TESCO CSC","TTS231","TESCO CSC","Call Centre","TESCO",""
"TESCO HO","TESC123","TESCO HO","Call Centre","TESCO",""
"Toshiba UK","tuk123","TOSHIBA UK","Call Centre","TOSHIBA INFORMATION SYSTEMS (UK) LTD",""
"warrantydir","war670r","WARRANTY DIRECT","Call Centre","WARRANTY DIRECT",""
"warsol","wsl991","WARSOL","Call Centre","WARRANTY SOLUTIONS","Karen.neagle@warrantysolutions.co.uk"
"warsol01","wsl993","WARSOL01","Call Centre","WARRANTY SOLUTIONS",""
"warsol1","wsl992","WARSOL1","Call Centre","WARRANTY SOLUTIONS",""
"Watford SC","sha2","WATSC","Branch Role","WATFORD SONY CENTRE",""
"Westgate1","WSSCUN1","WESTGATE1","Branch Role","WESTGATE STORE SCUNTHORPE",""
"Westgate2","WSSKEG1","WESTGATE2","Branch Role","WESTGATE STORE SKEGNESS",""
"WorcSony","worc936","WORCESTER SONY CENTRE","Branch Role","WORCESTER SONY CENTRE","sales@worcestersonycentre.co.uk"